{
    "type": "kafka",
    "spec": {
      "ioConfig": {
        "type": "kafka",
        "consumerProperties": {
          "bootstrap.servers": "localhost:9092"
        },
        "topic": "computer-metrics",
        "inputFormat": {
          "type": "json",
          "flattenSpec": {
            "fields": [
              {
                "name": "fields.usage_guest",
                "type": "path",
                "expr": "$.fields.usage_guest"
              },
              {
                "name": "fields.usage_guest_nice",
                "type": "path",
                "expr": "$.fields.usage_guest_nice"
              },
              {
                "name": "fields.usage_idle",
                "type": "path",
                "expr": "$.fields.usage_idle"
              },
              {
                "name": "fields.usage_iowait",
                "type": "path",
                "expr": "$.fields.usage_iowait"
              },
              {
                "name": "fields.usage_irq",
                "type": "path",
                "expr": "$.fields.usage_irq"
              },
              {
                "name": "fields.usage_nice",
                "type": "path",
                "expr": "$.fields.usage_nice"
              },
              {
                "name": "fields.usage_softirq",
                "type": "path",
                "expr": "$.fields.usage_softirq"
              },
              {
                "name": "fields.usage_steal",
                "type": "path",
                "expr": "$.fields.usage_steal"
              },
              {
                "name": "fields.usage_system",
                "type": "path",
                "expr": "$.fields.usage_system"
              },
              {
                "name": "fields.usage_user",
                "type": "path",
                "expr": "$.fields.usage_user"
              },
              {
                "name": "tags.cpu",
                "type": "path",
                "expr": "$.tags.cpu"
              },
              {
                "name": "tags.host",
                "type": "path",
                "expr": "$.tags.host"
              }         
            ]
          }
        },
        "useEarliestOffset": true
      },
      "tuningConfig": {
        "type": "kafka"
      },
      "dataSchema": {
        "dataSource": "computer-metrics-cpu",
        "granularitySpec": {
          "type": "uniform",
          "queryGranularity": "SECOND",
          "segmentGranularity": "HOUR",
          "rollup": true
        },
        "timestampSpec": {
          "column": "timestamp",
          "format": "posix"
        },
        "transformSpec": {
          "filter": {
            "type": "selector",
            "dimension": "name",
            "value": "cpu"
          }
        },
        "dimensionsSpec": {
          "dimensions": []
        },
        "metricsSpec": [
          {
            "name": "count",
            "type": "count"
          }
        ]
      }
    }
  }